PEPA Día 1 - Clase 1
…
## # A tibble: 2 x 2
##   mate                   n
##   <chr>              <int>
## 1 No, está prohibido    55
## 2 Si, está permitido   448

Datos cuantitativos no agrupados

Utilizando nuevamente el data frame plantel analicemos la cantidad de contrataciones por trimestre desde el año 2016 en adelante.

plantel %>%                           # Llama el dataframe 
  filter(anio_ingreso > 2018) %>%     # Filtra los ingresos posteriores al 2015
  count(anioq_ingreso)                # Cuenta la cantidad de ingresos por año y trimestre

## # A tibble: 173 x 2
##    anioq_ingreso     n
##    <chr>         <int>
##  1 1977-01-01-1      1
##  2 1977-01-01-3      1
##  3 1977-01-01-4      2
##  4 1978-01-01-1      3
##  5 1978-01-01-2      1
##  6 1978-01-01-3      2
##  7 1979-01-01-1      3
##  8 1979-01-01-2      1
##  9 1979-01-01-3      4
## 10 1979-01-01-4     11
## # ... with 163 more rows
…
